about – Modeling BLS damage
…
i <- 1
 while (i <= nrow(lmer_stats)) {
  if (lmer_stats$parameters[i] == "Slope" && lmer_stats$estimate[i] > 0) {
    # Remove a linha do Slope e a linha do Intercept correspondente
    lmer_stats <- lmer_stats[-c(i, i - 1), ]
    # Atualiza o índice, pois duas linhas foram removidas
    i <- i - 2
  }
  i <- i + 1
 }
lmer_stats

# A tibble: 400 × 9
# Groups:   experiment [200]
   experiment term        estimate std.error statistic  p.value `2.5 %` `97.5 %`
   <chr>      <chr>          <dbl>     <dbl>     <dbl>    <dbl>   <dbl>    <dbl>
 1 Exp_1      (Intercept)   9255.     282.       32.8  1.54e-34  8688.    9822. 
 2 Exp_1      .$sev          -54.9     10.6      -5.16 4.61e- 6   -76.3    -33.5
 3 Exp_10     (Intercept)  11383.     298.       38.2  1.31e-37 10784.   11981. 
 4 Exp_10     .$sev          -46.2      8.91     -5.18 4.35e- 6   -64.1    -28.3
 5 Exp_100    (Intercept)  10388.     227.       45.7  3.21e-41  9931.   10846. 
 6 Exp_100    .$sev          -43.9     10.1      -4.37 6.72e- 5   -64.2    -23.7
 7 Exp_101    (Intercept)   9420.     235.       40.1  1.46e-38  8948.    9893. 
 8 Exp_101    .$sev          -52.8      6.61     -7.99 2.30e-10   -66.1    -39.5
 9 Exp_102    (Intercept)   9851.     208.       47.3  6.15e-42  9432.   10269. 
10 Exp_102    .$sev          -63.6      7.25     -8.77 1.54e-11   -78.2    -49.0
# ℹ 390 more rows
# ℹ 1 more variable: parameters <chr>
…
#write_xlsx(power_df, "data/power_df.xlsx")

power_df = read_xlsx("data/power_df.xlsx")

power_df2 <- power_df %>%
  group_by(nlevels) %>%
  summarise(mean = mean(mean, na.rm = TRUE),
            lower = mean(lower, na.rm = TRUE),
            upper = mean(upper, na.rm = TRUE))

power_df %>% 
  filter(mean >= 0.80 & mean <=0.85)

# A tibble: 58 × 8
   simulation  nrow nlevels successes trials  mean lower upper
   <chr>      <dbl>   <dbl>     <dbl>  <dbl> <dbl> <dbl> <dbl>
 1 1             84      26        83    100  0.83 0.742 0.898
 2 2             81      25        83    100  0.83 0.742 0.898
 3 3             77      24        83    100  0.83 0.742 0.898
 4 4             81      25        83    100  0.83 0.742 0.898
 5 5             81      25        85    100  0.85 0.765 0.914
 6 7             81      25        82    100  0.82 0.731 0.890
 7 8             81      25        82    100  0.82 0.731 0.890
 8 8             84      26        85    100  0.85 0.765 0.914
 9 10            77      24        84    100  0.84 0.753 0.906
10 10            81      25        85    100  0.85 0.765 0.914
# ℹ 48 more rows
…
Corn price

corn = gsheet2tbl("https://docs.google.com/spreadsheets/d/1LcLVKb6bW7tVaiu6reLsT8sjFR1hwUcembZ7uxAoBP8/edit?usp=sharing") 

corn = corn %>%
  filter(state %in% c("PR")) %>% 
  filter(year <= 2019)

bls_price = corn %>%
  #filter(year <= 2019) %>%
  mutate(price = (price/60)/4)
bls_price

# A tibble: 36 × 5
   data    price national  year state
   <chr>   <dbl>    <dbl> <dbl> <chr>
 1 12/2019 0.152     37.3  2019 PR   
 2 11/2019 0.141     34.8  2019 PR   
 3 10/2019 0.131     32.7  2019 PR   
 4 9/2019  0.119     30.9  2019 PR   
 5 8/2019  0.121     30.8  2019 PR   
 6 7/2019  0.126     31.0  2019 PR   
 7 6/2019  0.124     30.4  2019 PR   
 8 5/2019  0.112     29.4  2019 PR   
 9 4/2019  0.120     31.1  2019 PR   
10 3/2019  0.132     32.1  2019 PR   
# ℹ 26 more rows
…
